Bike Trips analysis
…
trips %>% group_by(start_year,start_quarter,start_month,member_casual) %>% 
    summarise("avg_duration_trip"=mean(trip_duration,na.rm=T),
              "avg_trip_distance"=mean(distance_ctd,na.rm=TRUE),
              "avg_speed"=mean(speed,na.rm=T),
              "n_of_rides"=format(n(),scientific=F))

## # A tibble: 26 x 8
## # Groups:   start_year, start_quarter, start_month [13]
##    start_year start_quarter start_month member_casual avg_duration_trip
##         <dbl>         <int>       <dbl> <chr>         <drtn>           
##  1       2021             1           2 casual        2962.6862 secs   
##  2       2021             1           2 member        1081.4072 secs   
##  3       2021             1           3 casual        2289.6601 secs   
##  4       2021             1           3 member         838.2379 secs   
##  5       2021             2           4 casual        2281.5631 secs   
##  6       2021             2           4 member         881.4493 secs   
##  7       2021             2           5 casual        2294.1080 secs   
##  8       2021             2           5 member         878.4177 secs   
##  9       2021             2           6 casual        2227.5568 secs   
## 10       2021             2           6 member         880.7195 secs   
## # ... with 16 more rows, and 3 more variables: avg_trip_distance <dbl>,
## #   avg_speed <dbl>, n_of_rides <chr>
…
